dao\ProductDao.class
com\mycompany\storeproject\poc\TestUpdateProduct.class
database\Database.class
com\mycompany\storeproject\poc\TestConnection.class
com\mycompany\storeproject\poc\TestInsertProduct.class
dao\DaoInterface.class
model\Product.class
com\mycompany\storeproject\poc\TestSelectProduct.class
com\mycompany\storeproject\poc\TestDeletProduct.class
